bus-sniffer/AXI4/tb/wave.vcd
$date
  Thu May 04 16:46:17 2023
$end
$version
  GHDL v0
$end
$timescale
  1 fs
$end
$scope module standard $end
$upscope $end
$scope module std_logic_1164 $end
$upscope $end
$scope module numeric_std $end
$upscope $end
$scope module tb_axis $end
$var reg 1 ! sim_start_write $end
$var reg 1 " sim_start_ready $end
$var reg 1 # sim_valid_data $end
$var reg 8 $ sim_data[7:0] $end
$var reg 1 % o_axis_tvalid $end
$var reg 8 & o_axis_tdata[7:0] $end
$var reg 1 ' o_axis_tstrb[0:0] $end
$var reg 1 ( o_axis_tlast $end
$var reg 1 ) i_axis_tready $end
$var reg 1 * clk $end
$var reg 1 + rst_n $end
$var reg 3 , o_axi_awid[2:0] $end
$var reg 8 - o_axi_awaddr[7:0] $end
$var reg 8 . o_axi_awlen[7:0] $end
$var reg 3 / o_axi_awsize[2:0] $end
$var reg 2 0 o_axi_awburst[1:0] $end
$var reg 1 1 o_axi_awlock $end
$var reg 4 2 o_axi_awcache[3:0] $end
$var reg 3 3 o_axi_awprot[2:0] $end
$var reg 4 4 o_axi_awqos[3:0] $end
$var reg 4 5 o_axi_awregion[3:0] $end
$comment o_axi_awuser is not handled $end
$var reg 1 6 o_axi_awvalid $end
$var reg 1 7 i_axi_awready $end
$var reg 8 8 o_axi_wdata[7:0] $end
$var reg 1 9 o_axi_wstrb[0:0] $end
$var reg 1 : o_axi_wlast $end
$comment o_axi_wuser is not handled $end
$var reg 1 ; o_axi_wvalid $end
$var reg 1 < i_axi_wready $end
$var reg 3 = i_axi_bid[2:0] $end
$var reg 2 > i_axi_bresp[1:0] $end
$comment i_axi_buser is not handled $end
$var reg 1 ? i_axi_bvalid $end
$var reg 1 @ o_axi_bready $end
$var reg 3 A o_axi_arid[2:0] $end
$var reg 8 B o_axi_araddr[7:0] $end
$var reg 8 C o_axi_arlen[7:0] $end
$var reg 3 D o_axi_arsize[2:0] $end
$var reg 2 E o_axi_arburst[1:0] $end
$var reg 1 F o_axi_arlock $end
$var reg 4 G o_axi_arcache[3:0] $end
$var reg 3 H o_axi_arprot[2:0] $end
$var reg 4 I o_axi_arqos[3:0] $end
$var reg 4 J o_axi_arregion[3:0] $end
$comment o_axi_aruser is not handled $end
$var reg 1 K o_axi_arvalid $end
$var reg 1 L i_axi_arready $end
$var reg 3 M i_axi_rid[2:0] $end
$var reg 8 N i_axi_rdata[7:0] $end
$var reg 2 O i_axi_rresp[1:0] $end
$var reg 1 P i_axi_rlast $end
$comment i_axi_ruser is not handled $end
$var reg 1 Q i_axi_rvalid $end
$var reg 1 R o_axi_rready $end
$var reg 3 S o_y_axi_awid[2:0] $end
$var reg 8 T o_y_axi_awaddr[7:0] $end
$var reg 8 U o_y_axi_awlen[7:0] $end
$var reg 3 V o_y_axi_awsize[2:0] $end
$var reg 2 W o_y_axi_awburst[1:0] $end
$var reg 1 X o_y_axi_awlock $end
$var reg 4 Y o_y_axi_awcache[3:0] $end
$var reg 3 Z o_y_axi_awprot[2:0] $end
$var reg 4 [ o_y_axi_awqos[3:0] $end
$var reg 4 \ o_y_axi_awregion[3:0] $end
$comment o_y_axi_awuser is not handled $end
$var reg 1 ] o_y_axi_awvalid $end
$var reg 1 ^ i_y_axi_awready $end
$var reg 8 _ o_y_axi_wdata[7:0] $end
$var reg 1 ` o_y_axi_wstrb[0:0] $end
$var reg 1 a o_y_axi_wlast $end
$comment o_y_axi_wuser is not handled $end
$var reg 1 b o_y_axi_wvalid $end
$var reg 1 c i_y_axi_wready $end
$var reg 3 d i_y_axi_bid[2:0] $end
$var reg 2 e i_y_axi_bresp[1:0] $end
$comment i_y_axi_buser is not handled $end
$var reg 1 f i_y_axi_bvalid $end
$var reg 1 g o_y_axi_bready $end
$var reg 3 h o_y_axi_arid[2:0] $end
$var reg 8 i o_y_axi_araddr[7:0] $end
$var reg 8 j o_y_axi_arlen[7:0] $end
$var reg 3 k o_y_axi_arsize[2:0] $end
$var reg 2 l o_y_axi_arburst[1:0] $end
$var reg 1 m o_y_axi_arlock $end
$var reg 4 n o_y_axi_arcache[3:0] $end
$var reg 3 o o_y_axi_arprot[2:0] $end
$var reg 4 p o_y_axi_arqos[3:0] $end
$var reg 4 q o_y_axi_arregion[3:0] $end
$comment o_y_axi_aruser is not handled $end
$var reg 1 r o_y_axi_arvalid $end
$var reg 1 s i_y_axi_arready $end
$var reg 3 t i_y_axi_rid[2:0] $end
$var reg 8 u i_y_axi_rdata[7:0] $end
$var reg 2 v i_y_axi_rresp[1:0] $end
$var reg 1 w i_y_axi_rlast $end
$comment i_y_axi_ruser is not handled $end
$var reg 1 x i_y_axi_rvalid $end
$var reg 1 y o_y_axi_rready $end
$var reg 8 z clk_count[7:0] $end
$var reg 8 { outstanding_xfers[7:0] $end
$scope module axi_converter_inst $end
$var reg 1 | axis_aclk $end
$var reg 1 } axis_aresetn $end
$var reg 3 !" s_axi_awid[2:0] $end
$var reg 8 "" s_axi_awaddr[7:0] $end
$var reg 8 #" s_axi_awlen[7:0] $end
$var reg 3 $" s_axi_awsize[2:0] $end
$var reg 2 %" s_axi_awburst[1:0] $end
$var reg 1 &" s_axi_awlock $end
$var reg 4 '" s_axi_awcache[3:0] $end
$var reg 3 (" s_axi_awprot[2:0] $end
$var reg 4 )" s_axi_awqos[3:0] $end
$var reg 4 *" s_axi_awregion[3:0] $end
$comment s_axi_awuser is not handled $end
$var reg 1 +" s_axi_awvalid $end
$var reg 1 ," s_axi_awready $end
$var reg 8 -" s_axi_wdata[7:0] $end
$var reg 1 ." s_axi_wstrb[0:0] $end
$var reg 1 /" s_axi_wlast $end
$comment s_axi_wuser is not handled $end
$var reg 1 0" s_axi_wvalid $end
$var reg 1 1" s_axi_wready $end
$var reg 3 2" s_axi_bid[2:0] $end
$var reg 2 3" s_axi_bresp[1:0] $end
$comment s_axi_buser is not handled $end
$var reg 1 4" s_axi_bvalid $end
$var reg 1 5" s_axi_bready $end
$var reg 3 6" s_axi_arid[2:0] $end
$var reg 8 7" s_axi_araddr[7:0] $end
$var reg 8 8" s_axi_arlen[7:0] $end
$var reg 3 9" s_axi_arsize[2:0] $end
$var reg 2 :" s_axi_arburst[1:0] $end
$var reg 1 ;" s_axi_arlock $end
$var reg 4 <" s_axi_arcache[3:0] $end
$var reg 3 =" s_axi_arprot[2:0] $end
$var reg 4 >" s_axi_arqos[3:0] $end
$var reg 4 ?" s_axi_arregion[3:0] $end
$comment s_axi_aruser is not handled $end
$var reg 1 @" s_axi_arvalid $end
$var reg 1 A" s_axi_arready $end
$var reg 3 B" s_axi_rid[2:0] $end
$var reg 8 C" s_axi_rdata[7:0] $end
$var reg 2 D" s_axi_rresp[1:0] $end
$var reg 1 E" s_axi_rlast $end
$comment s_axi_ruser is not handled $end
$var reg 1 F" s_axi_rvalid $end
$var reg 1 G" s_axi_rready $end
$var reg 1 H" m_axis_tvalid $end
$var reg 8 I" m_axis_tdata[7:0] $end
$var reg 1 J" m_axis_tstrb[0:0] $end
$var reg 1 K" m_axis_tlast $end
$var reg 1 L" m_axis_tready $end
$comment state_axi_rx is not handled $end
$var reg 1 M" aclk $end
$var reg 1 N" aresetn $end
$var reg 1 O" i_s_axis_tvalid $end
$var reg 8 P" i_s_axis_tdata[7:0] $end
$var reg 9 Q" i_s_axis_data_strb[8:0] $end
$var reg 1 R" i_s_axis_tstrb[0:0] $end
$var reg 1 S" i_s_axis_tlast $end
$var reg 1 T" o_s_axis_tready $end
$var reg 1 U" o_m_axis_tvalid $end
$var reg 8 V" o_m_axis_tdata[7:0] $end
$var reg 9 W" o_m_axis_data_strb[8:0] $end
$var reg 1 X" o_m_axis_tstrb[0:0] $end
$var reg 1 Y" o_m_axis_tlast $end
$var reg 1 Z" i_m_axis_tready $end
$var reg 3 [" temp_bid[2:0] $end
$var reg 1 \" bresp_pending $end
$var reg 2 ]" debug_state[1:0] $end
$var reg 3 ^" i_axi_awid[2:0] $end
$var reg 8 _" i_axi_awaddr[7:0] $end
$var reg 8 `" i_axi_awlen[7:0] $end
$var reg 3 a" i_axi_awsize[2:0] $end
$var reg 2 b" i_axi_awburst[1:0] $end
$var reg 1 c" i_axi_awlock $end
$var reg 4 d" i_axi_awcache[3:0] $end
$var reg 3 e" i_axi_awprot[2:0] $end
$var reg 4 f" i_axi_awqos[3:0] $end
$var reg 4 g" i_axi_awregion[3:0] $end
$comment i_axi_awuser is not handled $end
$var reg 1 h" i_axi_awvalid $end
$var reg 1 i" o_axi_awready $end
$var reg 8 j" i_axi_wdata[7:0] $end
$var reg 1 k" i_axi_wstrb[0:0] $end
$var reg 1 l" i_axi_wlast $end
$comment i_axi_wuser is not handled $end
$var reg 1 m" i_axi_wvalid $end
$var reg 1 n" o_axi_wready $end
$var reg 3 o" o_axi_bid[2:0] $end
$var reg 2 p" o_axi_bresp[1:0] $end
$comment o_axi_buser is not handled $end
$var reg 1 q" o_axi_bvalid $end
$var reg 1 r" i_axi_bready $end
$var reg 3 s" i_axi_arid[2:0] $end
$var reg 8 t" i_axi_araddr[7:0] $end
$var reg 8 u" i_axi_arlen[7:0] $end
$var reg 3 v" i_axi_arsize[2:0] $end
$var reg 2 w" i_axi_arburst[1:0] $end
$var reg 1 x" i_axi_arlock $end
$var reg 4 y" i_axi_arcache[3:0] $end
$var reg 3 z" i_axi_arprot[2:0] $end
$var reg 4 {" i_axi_arqos[3:0] $end
$var reg 4 |" i_axi_arregion[3:0] $end
$comment i_axi_aruser is not handled $end
$var reg 1 }" i_axi_arvalid $end
$var reg 1 !# o_axi_arready $end
$var reg 3 "# o_axi_rid[2:0] $end
$var reg 8 ## o_axi_rdata[7:0] $end
$var reg 2 $# o_axi_rresp[1:0] $end
$var reg 1 %# o_axi_rlast $end
$comment o_axi_ruser is not handled $end
$var reg 1 &# o_axi_rvalid $end
$var reg 1 '# i_axi_rready $end
$scope module skidbuffer_inst $end
$var reg 1 (# clock $end
$var reg 1 )# reset_n $end
$var reg 1 *# s_valid_i $end
$var reg 1 +# s_last_i $end
$var reg 1 ,# s_ready_o $end
$var reg 9 -# s_data_i[8:0] $end
$var reg 1 .# m_valid_o $end
$var reg 1 /# m_last_o $end
$var reg 1 0# m_ready_i $end
$var reg 9 1# m_data_o[8:0] $end
$var reg 9 2# reg_data[8:0] $end
$var reg 1 3# reg_last $end
$var reg 1 4# reg_valid $end
$var reg 1 5# reg_ready $end
$var reg 9 6# skd_data[8:0] $end
$var reg 1 7# skd_last $end
$var reg 9 8# out_data[8:0] $end
$var reg 1 9# out_last $end
$scope module gen_data_register $end
$upscope $end
$upscope $end
$upscope $end
$scope module axi4_s_write_splitter_inst $end
$var reg 1 :# axi_aclk $end
$var reg 1 ;# axi_aresetn $end
$var reg 3 <# s00_axi_awid[2:0] $end
$var reg 8 =# s00_axi_awaddr[7:0] $end
$var reg 8 ># s00_axi_awlen[7:0] $end
$var reg 3 ?# s00_axi_awsize[2:0] $end
$var reg 2 @# s00_axi_awburst[1:0] $end
$var reg 1 A# s00_axi_awlock $end
$var reg 4 B# s00_axi_awcache[3:0] $end
$var reg 3 C# s00_axi_awprot[2:0] $end
$var reg 4 D# s00_axi_awqos[3:0] $end
$var reg 4 E# s00_axi_awregion[3:0] $end
$comment s00_axi_awuser is not handled $end
$var reg 1 F# s00_axi_awvalid $end
$var reg 1 G# s00_axi_awready $end
$var reg 8 H# s00_axi_wdata[7:0] $end
$var reg 1 I# s00_axi_wstrb[0:0] $end
$var reg 1 J# s00_axi_wlast $end
$comment s00_axi_wuser is not handled $end
$var reg 1 K# s00_axi_wvalid $end
$var reg 1 L# s00_axi_wready $end
$var reg 3 M# s00_axi_bid[2:0] $end
$var reg 2 N# s00_axi_bresp[1:0] $end
$comment s00_axi_buser is not handled $end
$var reg 1 O# s00_axi_bvalid $end
$var reg 1 P# s00_axi_bready $end
$var reg 3 Q# s00_axi_arid[2:0] $end
$var reg 8 R# s00_axi_araddr[7:0] $end
$var reg 8 S# s00_axi_arlen[7:0] $end
$var reg 3 T# s00_axi_arsize[2:0] $end
$var reg 2 U# s00_axi_arburst[1:0] $end
$var reg 1 V# s00_axi_arlock $end
$var reg 4 W# s00_axi_arcache[3:0] $end
$var reg 3 X# s00_axi_arprot[2:0] $end
$var reg 4 Y# s00_axi_arqos[3:0] $end
$var reg 4 Z# s00_axi_arregion[3:0] $end
$comment s00_axi_aruser is not handled $end
$var reg 1 [# s00_axi_arvalid $end
$var reg 1 \# s00_axi_arready $end
$var reg 3 ]# s00_axi_rid[2:0] $end
$var reg 8 ^# s00_axi_rdata[7:0] $end
$var reg 2 _# s00_axi_rresp[1:0] $end
$var reg 1 `# s00_axi_rlast $end
$comment s00_axi_ruser is not handled $end
$var reg 1 a# s00_axi_rvalid $end
$var reg 1 b# s00_axi_rready $end
$var reg 3 c# m00_axi_awid[2:0] $end
$var reg 8 d# m00_axi_awaddr[7:0] $end
$var reg 8 e# m00_axi_awlen[7:0] $end
$var reg 3 f# m00_axi_awsize[2:0] $end
$var reg 2 g# m00_axi_awburst[1:0] $end
$var reg 1 h# m00_axi_awlock $end
$var reg 4 i# m00_axi_awcache[3:0] $end
$var reg 3 j# m00_axi_awprot[2:0] $end
$var reg 4 k# m00_axi_awqos[3:0] $end
$comment m00_axi_awuser is not handled $end
$var reg 1 l# m00_axi_awvalid $end
$var reg 1 m# m00_axi_awready $end
$var reg 8 n# m00_axi_wdata[7:0] $end
$var reg 1 o# m00_axi_wstrb[0:0] $end
$var reg 1 p# m00_axi_wlast $end
$comment m00_axi_wuser is not handled $end
$var reg 1 q# m00_axi_wvalid $end
$var reg 1 r# m00_axi_wready $end
$var reg 3 s# m00_axi_bid[2:0] $end
$var reg 2 t# m00_axi_bresp[1:0] $end
$comment m00_axi_buser is not handled $end
$var reg 1 u# m00_axi_bvalid $end
$var reg 1 v# m00_axi_bready $end
$var reg 3 w# m00_axi_arid[2:0] $end
$var reg 8 x# m00_axi_araddr[7:0] $end
$var reg 8 y# m00_axi_arlen[7:0] $end
$var reg 3 z# m00_axi_arsize[2:0] $end
$var reg 2 {# m00_axi_arburst[1:0] $end
$var reg 1 |# m00_axi_arlock $end
$var reg 4 }# m00_axi_arcache[3:0] $end
$var reg 3 !$ m00_axi_arprot[2:0] $end
$var reg 4 "$ m00_axi_arqos[3:0] $end
$comment m00_axi_aruser is not handled $end
$var reg 1 #$ m00_axi_arvalid $end
$var reg 1 $$ m00_axi_arready $end
$var reg 3 %$ m00_axi_rid[2:0] $end
$var reg 8 &$ m00_axi_rdata[7:0] $end
$var reg 2 '$ m00_axi_rresp[1:0] $end
$var reg 1 ($ m00_axi_rlast $end
$comment m00_axi_ruser is not handled $end
$var reg 1 )$ m00_axi_rvalid $end
$var reg 1 *$ m00_axi_rready $end
$var reg 1 +$ m00_axis_tvalid $end
$var reg 8 ,$ m00_axis_tdata[7:0] $end
$var reg 1 -$ m00_axis_tstrb[0:0] $end
$var reg 1 .$ m00_axis_tlast $end
$var reg 1 /$ m00_axis_tready $end
$var reg 1 0$ m01_axis_tvalid $end
$var reg 8 1$ m01_axis_tdata[7:0] $end
$var reg 1 2$ m01_axis_tstrb[0:0] $end
$var reg 1 3$ m01_axis_tlast $end
$var reg 1 4$ m01_axis_tready $end
$var reg 1 5$ m02_axis_tvalid $end
$var reg 8 6$ m02_axis_tdata[7:0] $end
$var reg 1 7$ m02_axis_tstrb[0:0] $end
$var reg 1 8$ m02_axis_tlast $end
$var reg 1 9$ m02_axis_tready $end
$var reg 1 :$ m03_axis_tvalid $end
$var reg 8 ;$ m03_axis_tdata[7:0] $end
$var reg 1 <$ m03_axis_tstrb[0:0] $end
$var reg 1 =$ m03_axis_tlast $end
$var reg 1 >$ m03_axis_tready $end
$var reg 1 ?$ opt_awready $end
$var reg 1 @$ opt_wready $end
$var reg 1 A$ opt_arready $end
$var reg 1 B$ opt_rready $end
$var reg 1 C$ aw_axis_tvalid $end
$var reg 8 D$ aw_axis_tdata[7:0] $end
$var reg 1 E$ aw_axis_tstrb[0:0] $end
$var reg 1 F$ aw_axis_tlast $end
$var reg 1 G$ w_axis_tvalid $end
$var reg 8 H$ w_axis_tdata[7:0] $end
$var reg 1 I$ w_axis_tstrb[0:0] $end
$var reg 1 J$ w_axis_tlast $end
$var reg 1 K$ ar_axis_tvalid $end
$var reg 8 L$ ar_axis_tdata[7:0] $end
$var reg 1 M$ ar_axis_tstrb[0:0] $end
$var reg 1 N$ ar_axis_tlast $end
$var reg 1 O$ r_axis_tvalid $end
$var reg 8 P$ r_axis_tdata[7:0] $end
$var reg 1 Q$ r_axis_tstrb[0:0] $end
$var reg 1 R$ r_axis_tlast $end
$var reg 3 S$ i_axi_awid[2:0] $end
$var reg 8 T$ i_axi_awaddr[7:0] $end
$var reg 8 U$ i_axi_awlen[7:0] $end
$var reg 3 V$ i_axi_awsize[2:0] $end
$var reg 2 W$ i_axi_awburst[1:0] $end
$var reg 1 X$ i_axi_awlock $end
$var reg 4 Y$ i_axi_awcache[3:0] $end
$var reg 3 Z$ i_axi_awprot[2:0] $end
$var reg 4 [$ i_axi_awqos[3:0] $end
$var reg 4 \$ i_axi_awregion[3:0] $end
$comment i_axi_awuser is not handled $end
$var reg 1 ]$ i_axi_awvalid $end
$var reg 1 ^$ o_axi_awready $end
$var reg 8 _$ i_axi_wdata[7:0] $end
$var reg 1 `$ i_axi_wstrb[0:0] $end
$var reg 1 a$ i_axi_wlast $end
$comment i_axi_wuser is not handled $end
$var reg 1 b$ i_axi_wvalid $end
$var reg 1 c$ o_axi_wready $end
$var reg 3 d$ o_axi_bid[2:0] $end
$var reg 2 e$ o_axi_bresp[1:0] $end
$comment o_axi_buser is not handled $end
$var reg 1 f$ o_axi_bvalid $end
$var reg 1 g$ i_axi_bready $end
$var reg 3 h$ i_axi_arid[2:0] $end
$var reg 8 i$ i_axi_araddr[7:0] $end
$var reg 8 j$ i_axi_arlen[7:0] $end
$var reg 3 k$ i_axi_arsize[2:0] $end
$var reg 2 l$ i_axi_arburst[1:0] $end
$var reg 1 m$ i_axi_arlock $end
$var reg 4 n$ i_axi_arcache[3:0] $end
$var reg 3 o$ i_axi_arprot[2:0] $end
$var reg 4 p$ i_axi_arqos[3:0] $end
$var reg 4 q$ i_axi_arregion[3:0] $end
$comment i_axi_aruser is not handled $end
$var reg 1 r$ i_axi_arvalid $end
$var reg 1 s$ o_axi_arready $end
$var reg 3 t$ o_axi_rid[2:0] $end
$var reg 8 u$ o_axi_rdata[7:0] $end
$var reg 2 v$ o_axi_rresp[1:0] $end
$var reg 1 w$ o_axi_rlast $end
$comment o_axi_ruser is not handled $end
$var reg 1 x$ o_axi_rvalid $end
$var reg 1 y$ i_axi_rready $end
$upscope $end
$upscope $end
$enddefinitions $end
#0
0!
0"
0#
bUUUUUUUU $
U%
bUUUUUUUU &
bU '
U(
0)
1*
0+
bUUU ,
bUUUUUUUU -
bUUUUUUUU .
bUUU /
bUU 0
U1
bUUUU 2
bUUU 3
bUUUU 4
bUUUU 5
U6
U7
bUUUUUUUU 8
bU 9
U:
U;
U<
bUUU =
bUU >
U?
U@
bUUU A
bUUUUUUUU B
bUUUUUUUU C
bUUU D
bUU E
UF
bUUUU G
bUUU H
bUUUU I
bUUUU J
UK
UL
bUUU M
bUUUUUUUU N
bUU O
UP
UQ
UR
bUUU S
bUUUUUUUU T
bUUUUUUUU U
bUUU V
bUU W
UX
bUUUU Y
bUUU Z
bUUUU [
bUUUU \
U]
U^
bUUUUUUUU _
bU `
Ua
Ub
Uc
bUUU d
bUU e
Uf
Ug
bUUU h
bUUUUUUUU i
bUUUUUUUU j
bUUU k
bUU l
Um
bUUUU n
bUUU o
bUUUU p
bUUUU q
Ur
Us
bUUU t
bUUUUUUUU u
bUU v
Uw
Ux
Uy
b00000000 z
b00000000 {
1|
0}
bUUU !"
bUUUUUUUU ""
bUUUUUUUU #"
bUUU $"
bUU %"
U&"
bUUUU '"
bUUU ("
bUUUU )"
bUUUU *"
U+"
U,"
bUUUUUUUU -"
bU ."
U/"
U0"
U1"
bUUU 2"
bUU 3"
U4"
U5"
bUUU 6"
bUUUUUUUU 7"
bUUUUUUUU 8"
bUUU 9"
bUU :"
U;"
bUUUU <"
bUUU ="
bUUUU >"
bUUUU ?"
U@"
UA"
bUUU B"
bUUUUUUUU C"
bUU D"
UE"
UF"
UG"
UH"
bUUUUUUUU I"
bU J"
UK"
0L"
1M"
0N"
UO"
bUUUUUUUU P"
bUUUUUUUUU Q"
bU R"
US"
UT"
UU"
bUUUUUUUU V"
bUUUUUUUUU W"
bU X"
UY"
0Z"
bUUU ["
U\"
bUU ]"
bUUU ^"
bUUUUUUUU _"
bUUUUUUUU `"
bUUU a"
bUU b"
Uc"
bUUUU d"
bUUU e"
bUUUU f"
bUUUU g"
Uh"
Ui"
bUUUUUUUU j"
bU k"
Ul"
Um"
Un"
bUUU o"
bUU p"
Uq"
Ur"
bUUU s"
bUUUUUUUU t"
bUUUUUUUU u"
bUUU v"
bUU w"
Ux"
bUUUU y"
bUUU z"
bUUUU {"
bUUUU |"
U}"
U!#
bUUU "#
bUUUUUUUU ##
bUU $#
U%#
U&#
U'#
1(#
0)#
U*#
U+#
U,#
bUUUUUUUUU -#
U.#
U/#
00#
bUUUUUUUUU 1#
bUUUUUUUUU 2#
U3#
U4#
U5#
bUUUUUUUUU 6#
U7#
bUUUUUUUUU 8#
U9#
1:#
0;#
bUUU <#
bUUUUUUUU =#
bUUUUUUUU >#
bUUU ?#
bUU @#
UA#
bUUUU B#
bUUU C#
bUUUU D#
bUUUU E#
UF#
UG#
bUUUUUUUU H#
bU I#
UJ#
UK#
UL#
bUUU M#
bUU N#
UO#
UP#
bUUU Q#
bUUUUUUUU R#
bUUUUUUUU S#
bUUU T#
bUU U#
UV#
bUUUU W#
bUUU X#
bUUUU Y#
bUUUU Z#
U[#
U\#
bUUU ]#
bUUUUUUUU ^#
bUU _#
U`#
Ua#
Ub#
bUUU c#
bUUUUUUUU d#
bUUUUUUUU e#
bUUU f#
bUU g#
Uh#
bUUUU i#
bUUU j#
bUUUU k#
Ul#
Um#
bUUUUUUUU n#
bU o#
Up#
Uq#
Ur#
bUUU s#
bUU t#
Uu#
Uv#
bUUU w#
bUUUUUUUU x#
bUUUUUUUU y#
bUUU z#
bUU {#
U|#
bUUUU }#
bUUU !$
bUUUU "$
U#$
U$$
bUUU %$
bUUUUUUUU &$
bUU '$
U($
U)$
U*$
U+$
bUUUUUUUU ,$
b1 -$
0.$
1/$
U0$
bUUUUUUUU 1$
bU 2$
U3$
14$
U5$
bUUUUUUUU 6$
b1 7$
08$
19$
U:$
bUUUUUUUU ;$
b1 <$
U=$
1>$
U?$
U@$
UA$
UB$
UC$
bUUUUUUUU D$
b1 E$
0F$
UG$
bUUUUUUUU H$
bU I$
UJ$
UK$
bUUUUUUUU L$
b1 M$
0N$
UO$
bUUUUUUUU P$
b1 Q$
UR$
bUUU S$
bUUUUUUUU T$
bUUUUUUUU U$
bUUU V$
bUU W$
UX$
bUUUU Y$
bUUU Z$
bUUUU [$
bUUUU \$
U]$
U^$
bUUUUUUUU _$
bU `$
Ua$
Ub$
Uc$
bUUU d$
bUU e$
Uf$
Ug$
bUUU h$
bUUUUUUUU i$
bUUUUUUUU j$
bUUU k$
bUU l$
Um$
bUUUU n$
bUUU o$
bUUUU p$
bUUUU q$
Ur$
Us$
bUUU t$
bUUUUUUUU u$
bUU v$
Uw$
Ux$
Uy$
#2500000
0*
0|
0M"
0(#
0:#
#5000000
b00000000 $
0%
b00000000 &
b0 '
0(
1*
b000 ,
b00000000 -
b00000000 .
b000 /
b00 0
01
b0000 2
b000 3
b0000 4
b0000 5
06
17
b00000000 8
b0 9
0:
0;
0<
b000 =
b00 >
0?
1@
b000 S
b00000000 T
b00000000 U
b000 V
b00 W
0X
b0000 Y
b000 Z
b0000 [
0]
1^
b00000000 _
b0 `
0a
0b
0c
b000 d
b00 e
0f
1g
b00000001 z
1|
b000 !"
b00000000 ""
b00000000 #"
b000 $"
b00 %"
0&"
b0000 '"
b000 ("
b0000 )"
0+"
1,"
b00000000 -"
b0 ."
0/"
00"
01"
b000 2"
b00 3"
04"
15"
0H"
b00000000 I"
b0 J"
0K"
1M"
0O"
b00000000 P"
b000000000 Q"
b0 R"
0S"
0T"
0U"
b00000000 V"
b000000000 W"
b0 X"
0Y"
0\"
b00 ]"
b000 ^"
b00000000 _"
b00000000 `"
b000 a"
b00 b"
0c"
b0000 d"
b000 e"
b0000 f"
0h"
1i"
b00000000 j"
b0 k"
0l"
0m"
0n"
b000 o"
b00 p"
0q"
1r"
1(#
0*#
0+#
0,#
b000000000 -#
0.#
0/#
b000000000 1#
b000000000 2#
03#
04#
05#
b000000000 6#
07#
b000000000 8#
09#
1:#
b000 <#
b00000000 =#
b00000000 >#
b000 ?#
b00 @#
0A#
b0000 B#
b000 C#
b0000 D#
b0000 E#
0F#
1G#
b00000000 H#
b0 I#
0J#
0K#
0L#
b000 M#
b00 N#
0O#
1P#
b000 c#
b00000000 d#
b00000000 e#
b000 f#
b00 g#
0h#
b0000 i#
b000 j#
b0000 k#
0l#
1m#
b00000000 n#
b0 o#
0p#
0q#
0r#
b000 s#
b00 t#
0u#
1v#
0+$
b00000000 ,$
00$
b00000000 1$
b0 2$
03$
0C$
b00000000 D$
0G$
b00000000 H$
b0 I$
0J$
b000 S$
b00000000 T$
b00000000 U$
b000 V$
b00 W$
0X$
b0000 Y$
b000 Z$
b0000 [$
b0000 \$
0]$
1^$
b00000000 _$
b0 `$
0a$
0b$
0c$
b000 d$
b00 e$
0f$
1g$
#6250000
1+
1}
1N"
1)#
1;#
#7500000
0*
0|
0M"
0(#
0:#
#10000000
1"
1*
b00000010 z
1|
1M"
b01 ]"
1(#
1:#
#12500000
0*
0|
0M"
0(#
0:#
#15000000
1!
1)
1*
b00000011 z
b00000001 {
1|
1L"
1M"
1Z"
1(#
10#
1:#
#17500000
0*
0|
0M"
0(#
0:#
#20000000
1*
b101 ,
b01000010 -
b00111111 .
b110 /
b01 0
16
1<
b101 S
b01000010 T
b00111111 U
b110 V
b01 W
1]
1c
b00000100 z
1|
b101 !"
b01000010 ""
b00111111 #"
b110 $"
b01 %"
1+"
11"
1M"
1T"
b101 ^"
b01000010 _"
b00111111 `"
b110 a"
b01 b"
1h"
1n"
1(#
1,#
15#
1:#
b101 <#
b01000010 =#
b00111111 >#
b110 ?#
b01 @#
1F#
1L#
b101 c#
b01000010 d#
b00111111 e#
b110 f#
b01 g#
1l#
1r#
1+$
b01000010 ,$
1C$
b01000010 D$
b101 S$
b01000010 T$
b00111111 U$
b110 V$
b01 W$
1]$
1c$
#22500000
0*
0|
0M"
0(#
0:#
#25000000
0!
1#
b00000001 $
1*
b000 ,
b00000000 -
b00000000 .
b000 /
b00 0
06
07
b00000001 8
b1 9
1;
b101 =
b000 S
b00000000 T
b00000000 U
b000 V
b00 W
0]
0^
b00000001 _
b1 `
1b
b101 d
b00000101 z
1|
b000 !"
b00000000 ""
b00000000 #"
b000 $"
b00 %"
0+"
0,"
b00000001 -"
b1 ."
10"
b101 2"
1M"
1O"
b00000001 P"
b000000011 Q"
b1 R"
b000 ^"
b00000000 _"
b00000000 `"
b000 a"
b00 b"
0h"
0i"
b00000001 j"
b1 k"
1m"
b101 o"
1(#
1*#
b000000011 -#
1:#
b000 <#
b00000000 =#
b00000000 >#
b000 ?#
b00 @#
0F#
0G#
b00000001 H#
b1 I#
1K#
b101 M#
b000 c#
b00000000 d#
b00000000 e#
b000 f#
b00 g#
0l#
0m#
b00000001 n#
b1 o#
1q#
b101 s#
0+$
b00000000 ,$
10$
b00000001 1$
b1 2$
0C$
b00000000 D$
1G$
b00000001 H$
b1 I$
b000 S$
b00000000 T$
b00000000 U$
b000 V$
b00 W$
0]$
0^$
b00000001 _$
b1 `$
1b$
b101 d$
#27500000
0*
0|
0M"
0(#
0:#
#30000000
b00000010 $
1%
b00000001 &
b1 '
1*
17
b00000010 8
1^
b00000010 _
b00000110 z
1|
1,"
b00000010 -"
1H"
b00000001 I"
b1 J"
1M"
b00000010 P"
b000000101 Q"
1U"
b00000001 V"
b000000011 W"
b1 X"
b10 ]"
1i"
b00000010 j"
1(#
b000000101 -#
1.#
b000000011 1#
b000000011 2#
14#
b000000011 6#
b000000011 8#
1:#
1G#
b00000010 H#
1m#
b00000010 n#
b00000010 1$
b00000010 H$
1^$
b00000010 _$
#32500000
0*
0|
0M"
0(#
0:#
#35000000
b00000011 $
b00000010 &
1*
b00000011 8
b00000011 _
b00000111 z
1|
b00000011 -"
b00000010 I"
1M"
b00000011 P"
b000000111 Q"
b00000010 V"
b000000101 W"
b00000011 j"
1(#
b000000111 -#
b000000101 1#
b000000101 2#
b000000101 6#
b000000101 8#
1:#
b00000011 H#
b00000011 n#
b00000011 1$
b00000011 H$
b00000011 _$
#37500000
0*
0|
0M"
0(#
0:#
#40000000
b00000100 $
b00000011 &
1*
b00000100 8
b00000100 _
b00001000 z
1|
b00000100 -"
b00000011 I"
1M"
b00000100 P"
b000001001 Q"
b00000011 V"
b000000111 W"
b00000100 j"
1(#
b000001001 -#
b000000111 1#
b000000111 2#
b000000111 6#
b000000111 8#
1:#
b00000100 H#
b00000100 n#
b00000100 1$
b00000100 H$
b00000100 _$
#42500000
0*
0|
0M"
0(#
0:#
#45000000
b00000101 $
b00000100 &
1*
b00000101 8
b00000101 _
b00001001 z
1|
b00000101 -"
b00000100 I"
1M"
b00000101 P"
b000001011 Q"
b00000100 V"
b000001001 W"
b00000101 j"
1(#
b000001011 -#
b000001001 1#
b000001001 2#
b000001001 6#
b000001001 8#
1:#
b00000101 H#
b00000101 n#
b00000101 1$
b00000101 H$
b00000101 _$
