bus-sniffer/AXIS/tb/wave.vcd
$date
  Thu May 04 15:02:58 2023
$end
$version
  GHDL v0
$end
$timescale
  1 fs
$end
$scope module standard $end
$upscope $end
$scope module std_logic_1164 $end
$upscope $end
$scope module numeric_std $end
$upscope $end
$scope module tb_axis $end
$var reg 1 ! sim_start_write $end
$var reg 1 " sim_start_ready $end
$var reg 1 # sim_valid_data $end
$var reg 8 $ sim_data[7:0] $end
$var reg 1 % o_axis_tvalid $end
$var reg 8 & o_axis_tdata[7:0] $end
$var reg 1 ' o_axis_tstrb[0:0] $end
$var reg 1 ( o_axis_tlast $end
$var reg 1 ) i_axis_tready $end
$var reg 1 * o2_axis_tvalid $end
$var reg 8 + o2_axis_tdata[7:0] $end
$var reg 1 , o2_axis_tstrb[0:0] $end
$var reg 1 - o2_axis_tlast $end
$var reg 1 . i2_axis_tready $end
$var reg 1 / o3_axis_tvalid $end
$var reg 8 0 o3_axis_tdata[7:0] $end
$var reg 1 1 o3_axis_tstrb[0:0] $end
$var reg 1 2 o3_axis_tlast $end
$var reg 1 3 i3_axis_tready $end
$var reg 1 4 clk $end
$var reg 1 5 rst_n $end
$var reg 3 6 o_axi_awid[2:0] $end
$var reg 8 7 o_axi_awaddr[7:0] $end
$var reg 8 8 o_axi_awlen[7:0] $end
$var reg 3 9 o_axi_awsize[2:0] $end
$var reg 2 : o_axi_awburst[1:0] $end
$var reg 1 ; o_axi_awlock $end
$var reg 4 < o_axi_awcache[3:0] $end
$var reg 3 = o_axi_awprot[2:0] $end
$var reg 4 > o_axi_awqos[3:0] $end
$var reg 4 ? o_axi_awregion[3:0] $end
$comment o_axi_awuser is not handled $end
$var reg 1 @ o_axi_awvalid $end
$var reg 1 A i_axi_awready $end
$var reg 8 B o_axi_wdata[7:0] $end
$var reg 1 C o_axi_wstrb[0:0] $end
$var reg 1 D o_axi_wlast $end
$comment o_axi_wuser is not handled $end
$var reg 1 E o_axi_wvalid $end
$var reg 1 F i_axi_wready $end
$var reg 3 G i_axi_bid[2:0] $end
$var reg 2 H i_axi_bresp[1:0] $end
$comment i_axi_buser is not handled $end
$var reg 1 I i_axi_bvalid $end
$var reg 1 J o_axi_bready $end
$var reg 3 K o_axi_arid[2:0] $end
$var reg 8 L o_axi_araddr[7:0] $end
$var reg 8 M o_axi_arlen[7:0] $end
$var reg 3 N o_axi_arsize[2:0] $end
$var reg 2 O o_axi_arburst[1:0] $end
$var reg 1 P o_axi_arlock $end
$var reg 4 Q o_axi_arcache[3:0] $end
$var reg 3 R o_axi_arprot[2:0] $end
$var reg 4 S o_axi_arqos[3:0] $end
$var reg 4 T o_axi_arregion[3:0] $end
$comment o_axi_aruser is not handled $end
$var reg 1 U o_axi_arvalid $end
$var reg 1 V i_axi_arready $end
$var reg 3 W i_axi_rid[2:0] $end
$var reg 8 X i_axi_rdata[7:0] $end
$var reg 2 Y i_axi_rresp[1:0] $end
$var reg 1 Z i_axi_rlast $end
$comment i_axi_ruser is not handled $end
$var reg 1 [ i_axi_rvalid $end
$var reg 1 \ o_axi_rready $end
$var reg 8 ] clk_count[7:0] $end
$var reg 8 ^ outstanding_xfers[7:0] $end
$scope module split_inst $end
$var reg 1 _ axis_aclk $end
$var reg 1 ` axis_aresetn $end
$var reg 1 a s00_axis_tready $end
$var reg 8 b s00_axis_tdata[7:0] $end
$var reg 1 c s00_axis_tstrb[0:0] $end
$var reg 1 d s00_axis_tlast $end
$var reg 1 e s00_axis_tvalid $end
$var reg 1 f m00_axis_tvalid $end
$var reg 8 g m00_axis_tdata[7:0] $end
$var reg 1 h m00_axis_tstrb[0:0] $end
$var reg 1 i m00_axis_tlast $end
$var reg 1 j m00_axis_tready $end
$var reg 1 k m01_axis_tvalid $end
$var reg 8 l m01_axis_tdata[7:0] $end
$var reg 1 m m01_axis_tstrb[0:0] $end
$var reg 1 n m01_axis_tlast $end
$var reg 1 o m01_axis_tready $end
$var reg 1 p opt_tready $end
$var reg 1 q axis_tready $end
$var reg 8 r axis_tdata[7:0] $end
$var reg 1 s axis_tstrb[0:0] $end
$var reg 1 t axis_tlast $end
$var reg 1 u axis_tvalid $end
$upscope $end
$scope module axi_converter_inst $end
$var reg 1 v axis_aclk $end
$var reg 1 w axis_aresetn $end
$var reg 3 x s_axi_awid[2:0] $end
$var reg 8 y s_axi_awaddr[7:0] $end
$var reg 8 z s_axi_awlen[7:0] $end
$var reg 3 { s_axi_awsize[2:0] $end
$var reg 2 | s_axi_awburst[1:0] $end
$var reg 1 } s_axi_awlock $end
$var reg 4 !" s_axi_awcache[3:0] $end
$var reg 3 "" s_axi_awprot[2:0] $end
$var reg 4 #" s_axi_awqos[3:0] $end
$var reg 4 $" s_axi_awregion[3:0] $end
$comment s_axi_awuser is not handled $end
$var reg 1 %" s_axi_awvalid $end
$var reg 1 &" s_axi_awready $end
$var reg 8 '" s_axi_wdata[7:0] $end
$var reg 1 (" s_axi_wstrb[0:0] $end
$var reg 1 )" s_axi_wlast $end
$comment s_axi_wuser is not handled $end
$var reg 1 *" s_axi_wvalid $end
$var reg 1 +" s_axi_wready $end
$var reg 3 ," s_axi_bid[2:0] $end
$var reg 2 -" s_axi_bresp[1:0] $end
$comment s_axi_buser is not handled $end
$var reg 1 ." s_axi_bvalid $end
$var reg 1 /" s_axi_bready $end
$var reg 3 0" s_axi_arid[2:0] $end
$var reg 8 1" s_axi_araddr[7:0] $end
$var reg 8 2" s_axi_arlen[7:0] $end
$var reg 3 3" s_axi_arsize[2:0] $end
$var reg 2 4" s_axi_arburst[1:0] $end
$var reg 1 5" s_axi_arlock $end
$var reg 4 6" s_axi_arcache[3:0] $end
$var reg 3 7" s_axi_arprot[2:0] $end
$var reg 4 8" s_axi_arqos[3:0] $end
$var reg 4 9" s_axi_arregion[3:0] $end
$comment s_axi_aruser is not handled $end
$var reg 1 :" s_axi_arvalid $end
$var reg 1 ;" s_axi_arready $end
$var reg 3 <" s_axi_rid[2:0] $end
$var reg 8 =" s_axi_rdata[7:0] $end
$var reg 2 >" s_axi_rresp[1:0] $end
$var reg 1 ?" s_axi_rlast $end
$comment s_axi_ruser is not handled $end
$var reg 1 @" s_axi_rvalid $end
$var reg 1 A" s_axi_rready $end
$var reg 1 B" m_axis_tvalid $end
$var reg 8 C" m_axis_tdata[7:0] $end
$var reg 1 D" m_axis_tstrb[0:0] $end
$var reg 1 E" m_axis_tlast $end
$var reg 1 F" m_axis_tready $end
$comment state_axi_rx is not handled $end
$var reg 1 G" aclk $end
$var reg 1 H" aresetn $end
$var reg 1 I" i_s_axis_tvalid $end
$var reg 8 J" i_s_axis_tdata[7:0] $end
$var reg 9 K" i_s_axis_data_strb[8:0] $end
$var reg 1 L" i_s_axis_tstrb[0:0] $end
$var reg 1 M" i_s_axis_tlast $end
$var reg 1 N" o_s_axis_tready $end
$var reg 1 O" o_m_axis_tvalid $end
$var reg 8 P" o_m_axis_tdata[7:0] $end
$var reg 9 Q" o_m_axis_data_strb[8:0] $end
$var reg 1 R" o_m_axis_tstrb[0:0] $end
$var reg 1 S" o_m_axis_tlast $end
$var reg 1 T" i_m_axis_tready $end
$var reg 3 U" temp_bid[2:0] $end
$var reg 1 V" bresp_pending $end
$var reg 2 W" debug_state[1:0] $end
$var reg 3 X" i_axi_awid[2:0] $end
$var reg 8 Y" i_axi_awaddr[7:0] $end
$var reg 8 Z" i_axi_awlen[7:0] $end
$var reg 3 [" i_axi_awsize[2:0] $end
$var reg 2 \" i_axi_awburst[1:0] $end
$var reg 1 ]" i_axi_awlock $end
$var reg 4 ^" i_axi_awcache[3:0] $end
$var reg 3 _" i_axi_awprot[2:0] $end
$var reg 4 `" i_axi_awqos[3:0] $end
$var reg 4 a" i_axi_awregion[3:0] $end
$comment i_axi_awuser is not handled $end
$var reg 1 b" i_axi_awvalid $end
$var reg 1 c" o_axi_awready $end
$var reg 8 d" i_axi_wdata[7:0] $end
$var reg 1 e" i_axi_wstrb[0:0] $end
$var reg 1 f" i_axi_wlast $end
$comment i_axi_wuser is not handled $end
$var reg 1 g" i_axi_wvalid $end
$var reg 1 h" o_axi_wready $end
$var reg 3 i" o_axi_bid[2:0] $end
$var reg 2 j" o_axi_bresp[1:0] $end
$comment o_axi_buser is not handled $end
$var reg 1 k" o_axi_bvalid $end
$var reg 1 l" i_axi_bready $end
$var reg 3 m" i_axi_arid[2:0] $end
$var reg 8 n" i_axi_araddr[7:0] $end
$var reg 8 o" i_axi_arlen[7:0] $end
$var reg 3 p" i_axi_arsize[2:0] $end
$var reg 2 q" i_axi_arburst[1:0] $end
$var reg 1 r" i_axi_arlock $end
$var reg 4 s" i_axi_arcache[3:0] $end
$var reg 3 t" i_axi_arprot[2:0] $end
$var reg 4 u" i_axi_arqos[3:0] $end
$var reg 4 v" i_axi_arregion[3:0] $end
$comment i_axi_aruser is not handled $end
$var reg 1 w" i_axi_arvalid $end
$var reg 1 x" o_axi_arready $end
$var reg 3 y" o_axi_rid[2:0] $end
$var reg 8 z" o_axi_rdata[7:0] $end
$var reg 2 {" o_axi_rresp[1:0] $end
$var reg 1 |" o_axi_rlast $end
$comment o_axi_ruser is not handled $end
$var reg 1 }" o_axi_rvalid $end
$var reg 1 !# i_axi_rready $end
$scope module skidbuffer_inst $end
$var reg 1 "# clock $end
$var reg 1 ## reset_n $end
$var reg 1 $# s_valid_i $end
$var reg 1 %# s_last_i $end
$var reg 1 &# s_ready_o $end
$var reg 9 '# s_data_i[8:0] $end
$var reg 1 (# m_valid_o $end
$var reg 1 )# m_last_o $end
$var reg 1 *# m_ready_i $end
$var reg 9 +# m_data_o[8:0] $end
$var reg 9 ,# reg_data[8:0] $end
$var reg 1 -# reg_last $end
$var reg 1 .# reg_valid $end
$var reg 1 /# reg_ready $end
$var reg 9 0# skd_data[8:0] $end
$var reg 1 1# skd_last $end
$var reg 9 2# out_data[8:0] $end
$var reg 1 3# out_last $end
$scope module gen_data_register $end
$upscope $end
$upscope $end
$upscope $end
$upscope $end
$enddefinitions $end
#0
0!
0"
0#
bUUUUUUUU $
U%
bUUUUUUUU &
bU '
U(
0)
U*
bUUUUUUUU +
bU ,
U-
0.
U/
bUUUUUUUU 0
bU 1
U2
03
14
05
bUUU 6
bUUUUUUUU 7
bUUUUUUUU 8
bUUU 9
bUU :
U;
bUUUU <
bUUU =
bUUUU >
bUUUU ?
U@
UA
bUUUUUUUU B
bU C
UD
UE
UF
bUUU G
bUU H
UI
UJ
bUUU K
bUUUUUUUU L
bUUUUUUUU M
bUUU N
bUU O
UP
bUUUU Q
bUUU R
bUUUU S
bUUUU T
UU
UV
bUUU W
bUUUUUUUU X
bUU Y
UZ
U[
U\
b00000000 ]
b00000000 ^
1_
0`
1a
bUUUUUUUU b
bU c
Ud
Ue
Uf
bUUUUUUUU g
bU h
Ui
1j
Uk
bUUUUUUUU l
bU m
Un
1o
1p
1q
bUUUUUUUU r
bU s
Ut
Uu
1v
0w
bUUU x
bUUUUUUUU y
bUUUUUUUU z
bUUU {
bUU |
U}
bUUUU !"
bUUU ""
bUUUU #"
bUUUU $"
U%"
U&"
bUUUUUUUU '"
bU ("
U)"
U*"
U+"
bUUU ,"
bUU -"
U."
U/"
bUUU 0"
bUUUUUUUU 1"
bUUUUUUUU 2"
bUUU 3"
bUU 4"
U5"
bUUUU 6"
bUUU 7"
bUUUU 8"
bUUUU 9"
U:"
U;"
bUUU <"
bUUUUUUUU ="
bUU >"
U?"
U@"
UA"
UB"
bUUUUUUUU C"
bU D"
UE"
0F"
1G"
0H"
UI"
bUUUUUUUU J"
bUUUUUUUUU K"
bU L"
UM"
UN"
UO"
bUUUUUUUU P"
bUUUUUUUUU Q"
bU R"
US"
0T"
bUUU U"
UV"
bUU W"
bUUU X"
bUUUUUUUU Y"
bUUUUUUUU Z"
bUUU ["
bUU \"
U]"
bUUUU ^"
bUUU _"
bUUUU `"
bUUUU a"
Ub"
Uc"
bUUUUUUUU d"
bU e"
Uf"
Ug"
Uh"
bUUU i"
bUU j"
Uk"
Ul"
bUUU m"
bUUUUUUUU n"
bUUUUUUUU o"
bUUU p"
bUU q"
Ur"
bUUUU s"
bUUU t"
bUUUU u"
bUUUU v"
Uw"
Ux"
bUUU y"
bUUUUUUUU z"
bUU {"
U|"
U}"
U!#
1"#
0##
U$#
U%#
U&#
bUUUUUUUUU '#
U(#
U)#
0*#
bUUUUUUUUU +#
bUUUUUUUUU ,#
U-#
U.#
U/#
bUUUUUUUUU 0#
U1#
bUUUUUUUUU 2#
U3#
#2500000
04
0_
0v
0G"
0"#
#5000000
b00000000 $
0%
b00000000 &
b0 '
0(
14
b000 6
b00000000 7
b00000000 8
b000 9
b00 :
0;
b0000 <
b000 =
b0000 >
b0000 ?
0@
1A
b00000000 B
b0 C
0D
0E
0F
b000 G
b00 H
0I
1J
b00000001 ]
1_
b00000000 b
b0 c
0d
0e
0f
b00000000 g
b0 h
0i
0k
b00000000 l
b0 m
0n
b00000000 r
b0 s
0t
0u
1v
b000 x
b00000000 y
b00000000 z
b000 {
b00 |
0}
b0000 !"
b000 ""
b0000 #"
b0000 $"
0%"
1&"
b00000000 '"
b0 ("
0)"
0*"
0+"
b000 ,"
b00 -"
0."
1/"
0B"
b00000000 C"
b0 D"
0E"
1G"
0I"
b00000000 J"
b000000000 K"
b0 L"
0M"
0N"
0O"
b00000000 P"
b000000000 Q"
b0 R"
0S"
0V"
b00 W"
b000 X"
b00000000 Y"
b00000000 Z"
b000 ["
b00 \"
0]"
b0000 ^"
b000 _"
b0000 `"
b0000 a"
0b"
1c"
b00000000 d"
b0 e"
0f"
0g"
0h"
b000 i"
b00 j"
0k"
1l"
1"#
0$#
0%#
0&#
b000000000 '#
0(#
0)#
b000000000 +#
b000000000 ,#
0-#
0.#
0/#
b000000000 0#
01#
b000000000 2#
03#
#6250000
15
1`
1w
1H"
1##
#7500000
04
0_
0v
0G"
0"#
#10000000
1"
14
b00000010 ]
1_
1v
1G"
b01 W"
1"#
#12500000
04
0_
0v
0G"
0"#
#15000000
1!
1)
14
b00000011 ]
b00000001 ^
1_
1v
1F"
1G"
1T"
1"#
1*#
#17500000
04
0_
0v
0G"
0"#
#20000000
14
b101 6
b01000010 7
b00111111 8
b110 9
b01 :
1@
1F
b00000100 ]
1_
1v
b101 x
b01000010 y
b00111111 z
b110 {
b01 |
1%"
1+"
1G"
1N"
b101 X"
b01000010 Y"
b00111111 Z"
b110 ["
b01 \"
1b"
1h"
1"#
1&#
1/#
#22500000
04
0_
0v
0G"
0"#
#25000000
0!
1#
b00000001 $
14
b000 6
b00000000 7
b00000000 8
b000 9
b00 :
0@
0A
b00000001 B
b1 C
1E
b101 G
b00000101 ]
1_
1v
b000 x
b00000000 y
b00000000 z
b000 {
b00 |
0%"
0&"
b00000001 '"
b1 ("
1*"
b101 ,"
1G"
1I"
b00000001 J"
b000000011 K"
b1 L"
b000 X"
b00000000 Y"
b00000000 Z"
b000 ["
b00 \"
0b"
0c"
b00000001 d"
b1 e"
1g"
b101 i"
1"#
1$#
b000000011 '#
#27500000
04
0_
0v
0G"
0"#
#30000000
b00000010 $
1%
b00000001 &
b1 '
14
1A
b00000010 B
b00000110 ]
1_
b00000001 b
b1 c
1e
1f
b00000001 g
b1 h
1k
b00000001 l
b1 m
b00000001 r
b1 s
1u
1v
1&"
b00000010 '"
1B"
b00000001 C"
b1 D"
1G"
b00000010 J"
b000000101 K"
1O"
b00000001 P"
b000000011 Q"
b1 R"
b10 W"
1c"
b00000010 d"
1"#
b000000101 '#
1(#
b000000011 +#
b000000011 ,#
1.#
b000000011 0#
b000000011 2#
#32500000
04
0_
0v
0G"
0"#
#35000000
b00000011 $
b00000010 &
14
b00000011 B
b00000111 ]
1_
b00000010 b
b00000010 g
b00000010 l
b00000010 r
1v
b00000011 '"
b00000010 C"
1G"
b00000011 J"
b000000111 K"
b00000010 P"
b000000101 Q"
b00000011 d"
1"#
b000000111 '#
b000000101 +#
b000000101 ,#
b000000101 0#
b000000101 2#
#37500000
04
0_
0v
0G"
0"#
#40000000
b00000100 $
b00000011 &
14
b00000100 B
b00001000 ]
1_
b00000011 b
b00000011 g
b00000011 l
b00000011 r
1v
b00000100 '"
b00000011 C"
1G"
b00000100 J"
b000001001 K"
b00000011 P"
b000000111 Q"
b00000100 d"
1"#
b000001001 '#
b000000111 +#
b000000111 ,#
b000000111 0#
b000000111 2#
#42500000
04
0_
0v
0G"
0"#
#45000000
b00000101 $
b00000100 &
14
b00000101 B
b00001001 ]
1_
b00000100 b
b00000100 g
b00000100 l
b00000100 r
1v
b00000101 '"
b00000100 C"
1G"
b00000101 J"
b000001011 K"
b00000100 P"
b000001001 Q"
b00000101 d"
1"#
b000001011 '#
b000001001 +#
b000001001 ,#
b000001001 0#
b000001001 2#
#47500000
04
0_
0v
0G"
0"#
#50000000
b00000110 $
b00000101 &
14
b00000110 B
b00001010 ]
1_
b00000101 b
b00000101 g
b00000101 l
b00000101 r
1v
b00000110 '"
b00000101 C"
1G"
b00000110 J"
b000001101 K"
b00000101 P"
b000001011 Q"
b00000110 d"
1"#
b000001101 '#
b000001011 +#
b000001011 ,#
b000001011 0#
b000001011 2#
#52500000
04
0_
0v
0G"
0"#
#55000000
b00000111 $
b00000110 &
14
b00000111 B
b00001011 ]
1_
b00000110 b
b00000110 g
b00000110 l
b00000110 r
1v
b00000111 '"
b00000110 C"
1G"
b00000111 J"
b000001111 K"
b00000110 P"
b000001101 Q"
b00000111 d"
1"#
b000001111 '#
b000001101 +#
b000001101 ,#
b000001101 0#
b000001101 2#
#57500000
04
0_
0v
0G"
0"#
#60000000
b00001000 $
b00000111 &
14
b00001000 B
b00001100 ]
1_
b00000111 b
b00000111 g
b00000111 l
b00000111 r
1v
b00001000 '"
b00000111 C"
1G"
b00001000 J"
b000010001 K"
b00000111 P"
b000001111 Q"
b00001000 d"
1"#
b000010001 '#
b000001111 +#
b000001111 ,#
b000001111 0#
b000001111 2#
#62500000
04
0_
0v
0G"
0"#
#65000000
b00001001 $
b00001000 &
14
b00001001 B
b00001101 ]
1_
b00001000 b
b00001000 g
b00001000 l
b00001000 r
1v
b00001001 '"
b00001000 C"
1G"
b00001001 J"
b000010011 K"
b00001000 P"
b000010001 Q"
b00001001 d"
1"#
b000010011 '#
b000010001 +#
b000010001 ,#
b000010001 0#
b000010001 2#
#67500000
04
0_
0v
0G"
0"#
#70000000
b00001010 $
b00001001 &
14
b00001010 B
b00001110 ]
1_
b00001001 b
b00001001 g
b00001001 l
b00001001 r
1v
b00001010 '"
b00001001 C"
1G"
b00001010 J"
b000010101 K"
b00001001 P"
b000010011 Q"
b00001010 d"
1"#
b000010101 '#
b000010011 +#
b000010011 ,#
b000010011 0#
b000010011 2#
#72500000
04
0_
0v
0G"
0"#
#75000000
b00001011 $
b00001010 &
14
b00001011 B
b00001111 ]
1_
b00001010 b
b00001010 g
b00001010 l
b00001010 r
1v
b00001011 '"
b00001010 C"
1G"
b00001011 J"
b000010111 K"
b00001010 P"
b000010101 Q"
b00001011 d"
1"#
b000010111 '#
b000010101 +#
b000010101 ,#
b000010101 0#
b000010101 2#
#77500000
04
0_
0v
0G"
0"#
#80000000
b00001100 $
b00001011 &
14
b00001100 B
b00010000 ]
1_
b00001011 b
b00001011 g
b00001011 l
b00001011 r
1v
b00001100 '"
b00001011 C"
1G"
b00001100 J"
b000011001 K"
b00001011 P"
b000010111 Q"
b00001100 d"
1"#
b000011001 '#
b000010111 +#
b000010111 ,#
b000010111 0#
b000010111 2#
#82500000
04
0_
0v
0G"
0"#
#85000000
b00001101 $
b00001100 &
14
b00001101 B
b00010001 ]
1_
b00001100 b
b00001100 g
b00001100 l
b00001100 r
1v
b00001101 '"
b00001100 C"
1G"
b00001101 J"
b000011011 K"
b00001100 P"
b000011001 Q"
b00001101 d"
1"#
b000011011 '#
b000011001 +#
b000011001 ,#
b000011001 0#
b000011001 2#
#87500000
04
0_
0v
0G"
0"#
#90000000
b00001110 $
b00001101 &
14
b00001110 B
b00010010 ]
1_
b00001101 b
b00001101 g
b00001101 l
b00001101 r
1v
b00001110 '"
b00001101 C"
1G"
b00001110 J"
b000011101 K"
b00001101 P"
b000011011 Q"
b00001110 d"
1"#
b000011101 '#
b000011011 +#
b000011011 ,#
b000011011 0#
b000011011 2#
#92500000
04
0_
0v
0G"
0"#
#95000000
b00001111 $
b00001110 &
14
b00001111 B
b00010011 ]
1_
b00001110 b
b00001110 g
b00001110 l
b00001110 r
1v
b00001111 '"
b00001110 C"
1G"
b00001111 J"
b000011111 K"
b00001110 P"
b000011101 Q"
b00001111 d"
1"#
b000011111 '#
b000011101 +#
b000011101 ,#
b000011101 0#
b000011101 2#
#97500000
04
0_
0v
0G"
0"#
#100000000
1!
b00010000 $
b00001111 &
14
b00010000 B
1D
b00010100 ]
b00000010 ^
1_
b00001111 b
b00001111 g
b00001111 l
b00001111 r
1v
b00010000 '"
1)"
b00001111 C"
1G"
b00010000 J"
b000100001 K"
1M"
b00001111 P"
b000011111 Q"
b00010000 d"
1f"
1"#
1%#
b000100001 '#
b000011111 +#
b000011111 ,#
b000011111 0#
b000011111 2#
#102500000
04
0_
0v
0G"
0"#
#105000000
b00000001 $
b00010000 &
1(
14
b101 6
b01000010 7
b00111111 8
b110 9
b01 :
1@
b00000001 B
0D
b00010101 ]
b00000001 ^
1_
b00010000 b
1d
b00010000 g
1i
b00010000 l
1n
b00010000 r
1t
1v
b101 x
b01000010 y
b00111111 z
b110 {
b01 |
1%"
b00000001 '"
0)"
b00010000 C"
1E"
1G"
b00000001 J"
b000000011 K"
0M"
b00010000 P"
b000100001 Q"
1S"
b101 X"
b01000010 Y"
b00111111 Z"
b110 ["
b01 \"
1b"
b00000001 d"
0f"
1"#
0%#
b000000011 '#
1)#
b000100001 +#
b000100001 ,#
1-#
b000100001 0#
11#
b000100001 2#
13#
#107500000
04
0_
0v
0G"
0"#
#110000000
0!
b00000010 $
b00000001 &
0(
14
b000 6
b00000000 7
b00000000 8
b000 9
b00 :
0@
0A
b00000010 B
b00010110 ]
1_
b00000001 b
0d
b00000001 g
0i
b00000001 l
0n
b00000001 r
0t
1v
b000 x
b00000000 y
b00000000 z
b000 {
b00 |
0%"
0&"
b00000010 '"
b00000001 C"
0E"
1G"
b00000010 J"
b000000101 K"
b00000001 P"
b000000011 Q"
0S"
b101 U"
1V"
b000 X"
b00000000 Y"
b00000000 Z"
b000 ["
b00 \"
0b"
0c"
b00000010 d"
1"#
b000000101 '#
0)#
b000000011 +#
b000000011 ,#
0-#
b000000011 0#
01#
b000000011 2#
03#
#112500000
04
0_
0v
0G"
0"#
#115000000
b00000011 $
b00000010 &
14
1A
b00000011 B
1I
b00010111 ]
1_
b00000010 b
b00000010 g
b00000010 l
b00000010 r
1v
1&"
b00000011 '"
1."
b00000010 C"
1G"
b00000011 J"
b000000111 K"
b00000010 P"
b000000101 Q"
0V"
b11 W"
1c"
b00000011 d"
1k"
1"#
b000000111 '#
b000000101 +#
b000000101 ,#
b000000101 0#
b000000101 2#
#117500000
04
0_
0v
0G"
0"#
#120000000
b00000100 $
b00000011 &
14
b00000100 B
0I
0J
b00011000 ]
1_
b00000011 b
b00000011 g
b00000011 l
b00000011 r
1v
b00000100 '"
0."
0/"
b00000011 C"
1G"
b00000100 J"
b000001001 K"
b00000011 P"
b000000111 Q"
b10 W"
b00000100 d"
0k"
0l"
1"#
b000001001 '#
b000000111 +#
b000000111 ,#
b000000111 0#
b000000111 2#
#122500000
04
0_
0v
0G"
0"#
#125000000
b00000101 $
b00000100 &
14
b00000101 B
1J
b00011001 ]
1_
b00000100 b
b00000100 g
b00000100 l
b00000100 r
1v
b00000101 '"
1/"
b00000100 C"
1G"
b00000101 J"
b000001011 K"
b00000100 P"
b000001001 Q"
b00000101 d"
1l"
1"#
b000001011 '#
b000001001 +#
b000001001 ,#
b000001001 0#
b000001001 2#
#127500000
04
0_
0v
0G"
0"#
#130000000
b00000110 $
b00000101 &
14
b00000110 B
b00011010 ]
1_
b00000101 b
b00000101 g
b00000101 l
b00000101 r
1v
b00000110 '"
b00000101 C"
1G"
b00000110 J"
b000001101 K"
b00000101 P"
b000001011 Q"
b00000110 d"
1"#
b000001101 '#
b000001011 +#
b000001011 ,#
b000001011 0#
b000001011 2#
#132500000
04
0_
0v
0G"
0"#
#135000000
b00000111 $
b00000110 &
14
b00000111 B
b00011011 ]
1_
b00000110 b
b00000110 g
b00000110 l
b00000110 r
1v
b00000111 '"
b00000110 C"
1G"
b00000111 J"
b000001111 K"
b00000110 P"
b000001101 Q"
b00000111 d"
1"#
b000001111 '#
b000001101 +#
b000001101 ,#
b000001101 0#
b000001101 2#
#137500000
04
0_
0v
0G"
0"#
#140000000
b00001000 $
b00000111 &
14
b00001000 B
b00011100 ]
1_
b00000111 b
b00000111 g
b00000111 l
b00000111 r
1v
b00001000 '"
b00000111 C"
1G"
b00001000 J"
b000010001 K"
b00000111 P"
b000001111 Q"
b00001000 d"
1"#
b000010001 '#
b000001111 +#
b000001111 ,#
b000001111 0#
b000001111 2#
#142500000
04
0_
0v
0G"
0"#
#145000000
b00001001 $
b00001000 &
14
b00001001 B
b00011101 ]
1_
b00001000 b
b00001000 g
b00001000 l
b00001000 r
1v
b00001001 '"
b00001000 C"
1G"
b00001001 J"
b000010011 K"
b00001000 P"
b000010001 Q"
b00001001 d"
1"#
b000010011 '#
b000010001 +#
b000010001 ,#
b000010001 0#
b000010001 2#
#147500000
04
0_
0v
0G"
0"#
#150000000
b00001010 $
b00001001 &
14
b00001010 B
b00011110 ]
1_
b00001001 b
b00001001 g
b00001001 l
b00001001 r
1v
b00001010 '"
b00001001 C"
1G"
b00001010 J"
b000010101 K"
b00001001 P"
b000010011 Q"
b00001010 d"
1"#
b000010101 '#
b000010011 +#
b000010011 ,#
b000010011 0#
b000010011 2#
#152500000
04
0_
0v
0G"
0"#
#155000000
b00001011 $
b00001010 &
14
b00001011 B
b00011111 ]
1_
b00001010 b
b00001010 g
b00001010 l
b00001010 r
1v
b00001011 '"
b00001010 C"
1G"
b00001011 J"
b000010111 K"
b00001010 P"
b000010101 Q"
b00001011 d"
1"#
b000010111 '#
b000010101 +#
b000010101 ,#
b000010101 0#
b000010101 2#
#157500000
04
0_
0v
0G"
0"#
#160000000
b00001100 $
b00001011 &
14
b00001100 B
b00100000 ]
1_
b00001011 b
b00001011 g
b00001011 l
b00001011 r
1v
b00001100 '"
b00001011 C"
1G"
b00001100 J"
b000011001 K"
b00001011 P"
b000010111 Q"
b00001100 d"
1"#
b000011001 '#
b000010111 +#
b000010111 ,#
b000010111 0#
b000010111 2#
#162500000
04
0_
0v
0G"
0"#
#165000000
b00001101 $
b00001100 &
14
b00001101 B
b00100001 ]
1_
b00001100 b
b00001100 g
b00001100 l
b00001100 r
1v
b00001101 '"
b00001100 C"
1G"
b00001101 J"
b000011011 K"
b00001100 P"
b000011001 Q"
b00001101 d"
1"#
b000011011 '#
b000011001 +#
b000011001 ,#
b000011001 0#
b000011001 2#
#167500000
04
0_
0v
0G"
0"#
#170000000
b00001110 $
b00001101 &
14
b00001110 B
b00100010 ]
1_
b00001101 b
b00001101 g
b00001101 l
b00001101 r
1v
b00001110 '"
b00001101 C"
1G"
b00001110 J"
b000011101 K"
b00001101 P"
b000011011 Q"
b00001110 d"
1"#
b000011101 '#
b000011011 +#
b000011011 ,#
b000011011 0#
b000011011 2#
#172500000
04
0_
0v
0G"
0"#
#175000000
b00001111 $
b00001110 &
14
b00001111 B
b00100011 ]
1_
b00001110 b
b00001110 g
b00001110 l
b00001110 r
1v
b00001111 '"
b00001110 C"
1G"
b00001111 J"
b000011111 K"
b00001110 P"
b000011101 Q"
b00001111 d"
1"#
b000011111 '#
b000011101 +#
b000011101 ,#
b000011101 0#
b000011101 2#
#177500000
04
0_
0v
0G"
0"#
#180000000
b00010000 $
b00001111 &
14
b00010000 B
1D
b00100100 ]
1_
b00001111 b
b00001111 g
b00001111 l
b00001111 r
1v
b00010000 '"
1)"
b00001111 C"
1G"
b00010000 J"
b000100001 K"
1M"
b00001111 P"
b000011111 Q"
b00010000 d"
1f"
1"#
1%#
b000100001 '#
b000011111 +#
b000011111 ,#
b000011111 0#
b000011111 2#
#182500000
04
0_
0v
0G"
0"#
#185000000
0#
b00000000 $
b00010000 &
1(
14
b00000000 B
b0 C
0D
0E
b00100101 ]
b00000000 ^
1_
b00010000 b
1d
b00010000 g
1i
b00010000 l
1n
b00010000 r
1t
1v
b00000000 '"
b0 ("
0)"
0*"
b00010000 C"
1E"
1G"
0I"
b00000000 J"
b000000000 K"
b0 L"
0M"
b00010000 P"
b000100001 Q"
1S"
b00000000 d"
b0 e"
0f"
0g"
1"#
0$#
0%#
b000000000 '#
1)#
b000100001 +#
b000100001 ,#
1-#
b000100001 0#
11#
b000100001 2#
13#
#187500000
04
0_
0v
0G"
0"#
#190000000
0%
b00000000 &
b0 '
0(
14
1I
b00100110 ]
1_
b00000000 b
b0 c
0d
0e
0f
b00000000 g
b0 h
0i
0k
b00000000 l
b0 m
0n
b00000000 r
b0 s
0t
0u
1v
1."
0B"
b00000000 C"
b0 D"
0E"
1G"
0O"
b00000000 P"
b000000000 Q"
b0 R"
0S"
1k"
1"#
0(#
0)#
b000000000 +#
b000000000 ,#
0-#
0.#
b000000000 0#
01#
b000000000 2#
03#
#192500000
04
0_
0v
0G"
0"#
#195000000
14
0I
0J
b00100111 ]
1_
1v
0."
0/"
1G"
b01 W"
0k"
0l"
1"#
#197500000
04
0_
0v
0G"
0"#
#200000000
14
1J
b00101000 ]
1_
1v
1/"
1G"
1l"
1"#
#202500000
04
0_
0v
0G"
0"#
#205000000
14
b00101001 ]
1_
1v
1G"
1"#
#207500000
04
0_
0v
0G"
0"#
